^C:\USERS\TENSHINE\SOURCE\REPOS\LEXICAL ANALYSER\LEXICAL ANALYSER\DEBUG\LEXICAL ANALYSER.OBJ
/OUT:"C:\USERS\TENSHINE\SOURCE\REPOS\LEXICAL ANALYSER\DEBUG\LEXICAL ANALYSER.EXE" /INCREMENTAL /NOLOGO KERNEL32.LIB USER32.LIB GDI32.LIB WINSPOOL.LIB COMDLG32.LIB ADVAPI32.LIB SHELL32.LIB OLE32.LIB OLEAUT32.LIB UUID.LIB ODBC32.LIB ODBCCP32.LIB /MANIFEST /MANIFESTUAC:"level='asInvoker' uiAccess='false'" /manifest:embed /DEBUG:FASTLINK /PDB:"C:\USERS\TENSHINE\SOURCE\REPOS\LEXICAL ANALYSER\DEBUG\LEXICAL ANALYSER.PDB" /SUBSYSTEM:CONSOLE /TLBID:1 /DYNAMICBASE /NXCOMPAT /IMPLIB:"C:\USERS\TENSHINE\SOURCE\REPOS\LEXICAL ANALYSER\DEBUG\LEXICAL ANALYSER.LIB" /MACHINE:X86 "DEBUG\LEXICAL ANALYSER.OBJ"
^C:\USERS\TENSHINE\SOURCE\REPOS\LEXICAL ANALYSER\LEXICAL ANALYSER\DEBUG\ARITHMETIC_OPERATORS.OBJ|C:\USERS\TENSHINE\SOURCE\REPOS\LEXICAL ANALYSER\LEXICAL ANALYSER\DEBUG\ASSIGNMENT_OPERATOR.OBJ|C:\USERS\TENSHINE\SOURCE\REPOS\LEXICAL ANALYSER\LEXICAL ANALYSER\DEBUG\BITWISE_OPERATORS.OBJ|C:\USERS\TENSHINE\SOURCE\REPOS\LEXICAL ANALYSER\LEXICAL ANALYSER\DEBUG\BOOLEAN_STRING.OBJ|C:\USERS\TENSHINE\SOURCE\REPOS\LEXICAL ANALYSER\LEXICAL ANALYSER\DEBUG\COMPARISON_OPERATORS.OBJ|C:\USERS\TENSHINE\SOURCE\REPOS\LEXICAL ANALYSER\LEXICAL ANALYSER\DEBUG\DEFINITION_SYMBOLS.OBJ|C:\USERS\TENSHINE\SOURCE\REPOS\LEXICAL ANALYSER\LEXICAL ANALYSER\DEBUG\EXPR_STRING.OBJ|C:\USERS\TENSHINE\SOURCE\REPOS\LEXICAL ANALYSER\LEXICAL ANALYSER\DEBUG\FLOAT_NUMBER.OBJ|C:\USERS\TENSHINE\SOURCE\REPOS\LEXICAL ANALYSER\LEXICAL ANALYSER\DEBUG\IDENTIFIER.OBJ|C:\USERS\TENSHINE\SOURCE\REPOS\LEXICAL ANALYSER\LEXICAL ANALYSER\DEBUG\IDFA.OBJ|C:\USERS\TENSHINE\SOURCE\REPOS\LEXICAL ANALYSER\LEXICAL ANALYSER\DEBUG\INDICATION_SYMBOLS.OBJ|C:\USERS\TENSHINE\SOURCE\REPOS\LEXICAL ANALYSER\LEXICAL ANALYSER\DEBUG\INPUT_SEPARATOR.OBJ|C:\USERS\TENSHINE\SOURCE\REPOS\LEXICAL ANALYSER\LEXICAL ANALYSER\DEBUG\KEYWORD.OBJ|C:\USERS\TENSHINE\SOURCE\REPOS\LEXICAL ANALYSER\LEXICAL ANALYSER\DEBUG\LEXICAL_ANALYSER.OBJ|C:\USERS\TENSHINE\SOURCE\REPOS\LEXICAL ANALYSER\LEXICAL ANALYSER\DEBUG\MAIN.OBJ|C:\USERS\TENSHINE\SOURCE\REPOS\LEXICAL ANALYSER\LEXICAL ANALYSER\DEBUG\NODE.OBJ|C:\USERS\TENSHINE\SOURCE\REPOS\LEXICAL ANALYSER\LEXICAL ANALYSER\DEBUG\SIGNED_INT.OBJ|C:\USERS\TENSHINE\SOURCE\REPOS\LEXICAL ANALYSER\LEXICAL ANALYSER\DEBUG\TERM_STATEMENT.OBJ|C:\USERS\TENSHINE\SOURCE\REPOS\LEXICAL ANALYSER\LEXICAL ANALYSER\DEBUG\VARIABLE_TYPE.OBJ|C:\USERS\TENSHINE\SOURCE\REPOS\LEXICAL ANALYSER\LEXICAL ANALYSER\DEBUG\WHITESPACES.OBJ
/OUT:"C:\USERS\TENSHINE\SOURCE\REPOS\LEXICAL ANALYSER\DEBUG\LEXICAL ANALYSER.EXE" /INCREMENTAL /NOLOGO KERNEL32.LIB USER32.LIB GDI32.LIB WINSPOOL.LIB COMDLG32.LIB ADVAPI32.LIB SHELL32.LIB OLE32.LIB OLEAUT32.LIB UUID.LIB ODBC32.LIB ODBCCP32.LIB /MANIFEST /MANIFESTUAC:"level='asInvoker' uiAccess='false'" /manifest:embed /DEBUG:FASTLINK /PDB:"C:\USERS\TENSHINE\SOURCE\REPOS\LEXICAL ANALYSER\DEBUG\LEXICAL ANALYSER.PDB" /SUBSYSTEM:CONSOLE /TLBID:1 /DYNAMICBASE /NXCOMPAT /IMPLIB:"C:\USERS\TENSHINE\SOURCE\REPOS\LEXICAL ANALYSER\DEBUG\LEXICAL ANALYSER.LIB" /MACHINE:X86 DEBUG\ARITHMETIC_OPERATORS.OBJ
DEBUG\ASSIGNMENT_OPERATOR.OBJ
DEBUG\BITWISE_OPERATORS.OBJ
DEBUG\BOOLEAN_STRING.OBJ
DEBUG\COMPARISON_OPERATORS.OBJ
DEBUG\DEFINITION_SYMBOLS.OBJ
DEBUG\EXPR_STRING.OBJ
DEBUG\FLOAT_NUMBER.OBJ
DEBUG\IDENTIFIER.OBJ
DEBUG\IDFA.OBJ
DEBUG\INDICATION_SYMBOLS.OBJ
DEBUG\INPUT_SEPARATOR.OBJ
DEBUG\KEYWORD.OBJ
DEBUG\LEXICAL_ANALYSER.OBJ
DEBUG\MAIN.OBJ
DEBUG\NODE.OBJ
DEBUG\SIGNED_INT.OBJ
DEBUG\TERM_STATEMENT.OBJ
DEBUG\VARIABLE_TYPE.OBJ
DEBUG\WHITESPACES.OBJ
